…
Problem 6. (2 points) The family Anatidae includes ducks, geese, and swans. Make a new object `ducks` that only includes species in the family Anatidae. Restrict this new dataframe to include all variables except order and family.

```r
duck <- ecosphere %>%
filter(family == "Anatidae")%>%
select(-order)
duck
```

```
## # A tibble: 44 × 20
##    family  commo…¹ scien…² diet  life_…³ habitat urban…⁴ migra…⁵ log10…⁶ mean_…⁷
##    <chr>   <chr>   <chr>   <chr> <chr>   <chr>   <chr>   <chr>     <dbl>   <dbl>
##  1 Anatid… "Ameri… Anas r… Vege… Long    Wetland No      Short      3.09     9  
##  2 Anatid… "Ameri… Anas a… Vege… Middle  Wetland No      Short      2.88     7.5
##  3 Anatid… "Barro… Buceph… Inve… Middle  Wetland No      Modera…    2.96    10.5
##  4 Anatid… "Black… Branta… Vege… Long    Wetland No      Modera…    3.11     3.5
##  5 Anatid… "Black… Melani… Inve… Middle  Wetland No      Modera…    3.02     9.5
##  6 Anatid… "Black… Dendro… Vege… Short   Wetland No      Withdr…    2.88    13.5
##  7 Anatid… "Blue-… Anas d… Vege… Middle  Wetland No      Modera…    2.56    10  
##  8 Anatid… "Buffl… Buceph… Inve… Middle  Wetland No      Short      2.6      8.5
##  9 Anatid… "Cackl… Branta… Vege… Middle  Wetland Yes     Short      3.45     5  
## 10 Anatid… "Canva… Aythya… Vege… Middle  Wetland No      Short      3.08     8  
## # … with 34 more rows, 10 more variables: mean_age_at_sexual_maturity <dbl>,
## #   population_size <dbl>, winter_range_area <dbl>, range_in_cbc <dbl>,
## #   strata <dbl>, circles <dbl>, feeder_bird <chr>, median_trend <dbl>,
## #   lower_95_percent_ci <dbl>, upper_95_percent_ci <dbl>, and abbreviated
## #   variable names ¹​common_name, ²​scientific_name, ³​life_expectancy,
## #   ⁴​urban_affiliate, ⁵​migratory_strategy, ⁶​log10_mass, ⁷​mean_eggs_per_clutch
```
…
