…
```
## Rows: 62 Columns: 11
## ── Column specification ────────────────────────────────────────────────────────
## Delimiter: ","
## chr  (1): species
## dbl (10): body weight in kg, brain weight in g, slow wave ("nondreaming") sl...
## 
## ℹ Use `spec()` to retrieve the full column specification for this data.
## ℹ Specify the column types or set `show_col_types = FALSE` to quiet this message.
```

```
## # A tibble: 62 × 11
##    species       body …¹ brain…² slow …³ parad…⁴ total…⁵ maxim…⁶ gesta…⁷ preda…⁸
##    <chr>           <dbl>   <dbl>   <dbl>   <dbl>   <dbl>   <dbl>   <dbl>   <dbl>
##  1 African elep… 6.65e+3  5712    -999    -999       3.3    38.6     645       3
##  2 African gian… 1   e+0     6.6     6.3     2       8.3     4.5      42       3
##  3 Arctic Fox    3.38e+0    44.5  -999    -999      12.5    14        60       1
##  4 Arctic groun… 9.2 e-1     5.7  -999    -999      16.5  -999        25       5
##  5 Asian elepha… 2.55e+3  4603       2.1     1.8     3.9    69       624       3
##  6 Baboon        1.06e+1   180.      9.1     0.7     9.8    27       180       4
##  7 Big brown bat 2.3 e-2     0.3    15.8     3.9    19.7    19        35       1
##  8 Brazilian ta… 1.6 e+2   169       5.2     1       6.2    30.4     392       4
##  9 Cat           3.3 e+0    25.6    10.9     3.6    14.5    28        63       1
## 10 Chimpanzee    5.22e+1   440       8.3     1.4     9.7    50       230       1
## # … with 52 more rows, 2 more variables: `sleep exposure index (1-5)` <dbl>,
## #   `overall danger index (1-5)` <dbl>, and abbreviated variable names
## #   ¹​`body weight in kg`, ²​`brain weight in g`,
## #   ³​`slow wave ("nondreaming") sleep (hrs/day)`,
## #   ⁴​`paradoxical ("dreaming") sleep (hrs/day)`,
## #   ⁵​`total sleep (hrs/day)  (sum of slow wave and paradoxical sleep)`,
## #   ⁶​`maximum life span (years)`, ⁷​`gestation time (days)`, …
```
…
**7. We are interested in two groups; small and large mammals. Let's define small as less than or equal to 1kg body weight and large as greater than or equal to 200kg body weight. Make two new dataframes (large and small) based on these parameters.**


```r
small <- filter(sleep, `bodywt` <= 1 )
small
```

```
## # A tibble: 36 × 11
##    name  genus vore  order conse…¹ sleep…² sleep…³ sleep…⁴ awake  brainwt bodywt
##    <chr> <chr> <chr> <chr> <chr>     <dbl>   <dbl>   <dbl> <dbl>    <dbl>  <dbl>
##  1 Owl … Aotus omni  Prim… <NA>       17       1.8  NA       7    0.0155   0.48 
##  2 Grea… Blar… omni  Sori… lc         14.9     2.3   0.133   9.1  0.00029  0.019
##  3 Vesp… Calo… <NA>  Rode… <NA>        7      NA    NA      17   NA        0.045
##  4 Guin… Cavis herbi Rode… domest…     9.4     0.8   0.217  14.6  0.0055   0.728
##  5 Chin… Chin… herbi Rode… domest…    12.5     1.5   0.117  11.5  0.0064   0.42 
##  6 Star… Cond… omni  Sori… lc         10.3     2.2  NA      13.7  0.001    0.06 
##  7 Afri… Cric… omni  Rode… <NA>        8.3     2    NA      15.7  0.0066   1    
##  8 Less… Cryp… omni  Sori… lc          9.1     1.4   0.15   14.9  0.00014  0.005
##  9 Big … Epte… inse… Chir… lc         19.7     3.9   0.117   4.3  0.0003   0.023
## 10 Euro… Erin… omni  Erin… lc         10.1     3.5   0.283  13.9  0.0035   0.77 
## # … with 26 more rows, and abbreviated variable names ¹​conservation,
## #   ²​sleep_total, ³​sleep_rem, ⁴​sleep_cycle
```
…
